# 1 "p/3d.Linux.64.mpiCC.mpif90.OPT.MPI-blpdata/GradientF.C"
# 1 "/global/u2/p/psli/Orion2/Lib/Chombo/lib/src/MHDTools/../../src/BaseTools/REAL.H"
# 10 "/global/u2/p/psli/Orion2/Lib/Chombo/lib/src/MHDTools/../../src/BaseTools/REAL.H"





# 24 "/global/u2/p/psli/Orion2/Lib/Chombo/lib/src/MHDTools/../../src/BaseTools/REAL.H"

# 41 "/global/u2/p/psli/Orion2/Lib/Chombo/lib/src/MHDTools/../../src/BaseTools/REAL.H"

# 54 "/global/u2/p/psli/Orion2/Lib/Chombo/lib/src/MHDTools/../../src/BaseTools/REAL.H"



# 65 "/global/u2/p/psli/Orion2/Lib/Chombo/lib/src/MHDTools/../../src/BaseTools/REAL.H"





# 2 "p/3d.Linux.64.mpiCC.mpif90.OPT.MPI-blpdata/GradientF.C"
# 1 "/global/u2/p/psli/Orion2/Lib/Chombo/lib/src/MHDTools/../../src/BoxTools/SPACE.H"
# 10 "/global/u2/p/psli/Orion2/Lib/Chombo/lib/src/MHDTools/../../src/BoxTools/SPACE.H"













# 1 "/global/u2/p/psli/Orion2/Lib/Chombo/lib/src/MHDTools/../../src/BaseTools/CH_assert.H"
# 10 "/global/u2/p/psli/Orion2/Lib/Chombo/lib/src/MHDTools/../../src/BaseTools/CH_assert.H"









# 1 "/global/u2/p/psli/Orion2/Lib/Chombo/lib/src/MHDTools/../../src/BaseTools/BaseNamespaceHeader.H"
# 10 "/global/u2/p/psli/Orion2/Lib/Chombo/lib/src/MHDTools/../../src/BaseTools/BaseNamespaceHeader.H"

# 20 "/global/u2/p/psli/Orion2/Lib/Chombo/lib/src/MHDTools/../../src/BaseTools/CH_assert.H"


# 43 "/global/u2/p/psli/Orion2/Lib/Chombo/lib/src/MHDTools/../../src/BaseTools/CH_assert.H"

# 51 "/global/u2/p/psli/Orion2/Lib/Chombo/lib/src/MHDTools/../../src/BaseTools/CH_assert.H"


# 1 "/global/u2/p/psli/Orion2/Lib/Chombo/lib/src/MHDTools/../../src/BaseTools/BaseNamespaceFooter.H"
# 10 "/global/u2/p/psli/Orion2/Lib/Chombo/lib/src/MHDTools/../../src/BaseTools/BaseNamespaceFooter.H"

# 54 "/global/u2/p/psli/Orion2/Lib/Chombo/lib/src/MHDTools/../../src/BaseTools/CH_assert.H"



# 24 "/global/u2/p/psli/Orion2/Lib/Chombo/lib/src/MHDTools/../../src/BoxTools/SPACE.H"

# 1 "/global/u2/p/psli/Orion2/Lib/Chombo/lib/src/MHDTools/../../src/BaseTools/NamespaceHeader.H"
# 10 "/global/u2/p/psli/Orion2/Lib/Chombo/lib/src/MHDTools/../../src/BaseTools/NamespaceHeader.H"

# 26 "/global/u2/p/psli/Orion2/Lib/Chombo/lib/src/MHDTools/../../src/BoxTools/SPACE.H"

# 41 "/global/u2/p/psli/Orion2/Lib/Chombo/lib/src/MHDTools/../../src/BoxTools/SPACE.H"

# 54 "/global/u2/p/psli/Orion2/Lib/Chombo/lib/src/MHDTools/../../src/BoxTools/SPACE.H"













# 1 "/global/u2/p/psli/Orion2/Lib/Chombo/lib/src/MHDTools/../../src/BaseTools/NamespaceFooter.H"
# 10 "/global/u2/p/psli/Orion2/Lib/Chombo/lib/src/MHDTools/../../src/BaseTools/NamespaceFooter.H"

# 68 "/global/u2/p/psli/Orion2/Lib/Chombo/lib/src/MHDTools/../../src/BoxTools/SPACE.H"

# 76 "/global/u2/p/psli/Orion2/Lib/Chombo/lib/src/MHDTools/../../src/BoxTools/SPACE.H"









# 93 "/global/u2/p/psli/Orion2/Lib/Chombo/lib/src/MHDTools/../../src/BoxTools/SPACE.H"

# 143 "/global/u2/p/psli/Orion2/Lib/Chombo/lib/src/MHDTools/../../src/BoxTools/SPACE.H"

# 171 "/global/u2/p/psli/Orion2/Lib/Chombo/lib/src/MHDTools/../../src/BoxTools/SPACE.H"

# 195 "/global/u2/p/psli/Orion2/Lib/Chombo/lib/src/MHDTools/../../src/BoxTools/SPACE.H"

# 3 "p/3d.Linux.64.mpiCC.mpif90.OPT.MPI-blpdata/GradientF.C"
# 1 "/global/u2/p/psli/Orion2/Lib/Chombo/lib/src/MHDTools/../../src/BaseTools/CONSTANTS.H"
# 10 "/global/u2/p/psli/Orion2/Lib/Chombo/lib/src/MHDTools/../../src/BaseTools/CONSTANTS.H"


# 1 "/global/u2/p/psli/Orion2/Lib/Chombo/lib/src/MHDTools/../../src/BaseTools/BaseNamespaceHeader.H"
# 10 "/global/u2/p/psli/Orion2/Lib/Chombo/lib/src/MHDTools/../../src/BaseTools/BaseNamespaceHeader.H"

# 15 "/global/u2/p/psli/Orion2/Lib/Chombo/lib/src/MHDTools/../../src/BaseTools/CONSTANTS.H"

# 67 "/global/u2/p/psli/Orion2/Lib/Chombo/lib/src/MHDTools/../../src/BaseTools/CONSTANTS.H"

# 91 "/global/u2/p/psli/Orion2/Lib/Chombo/lib/src/MHDTools/../../src/BaseTools/CONSTANTS.H"

# 115 "/global/u2/p/psli/Orion2/Lib/Chombo/lib/src/MHDTools/../../src/BaseTools/CONSTANTS.H"







# 1 "/global/u2/p/psli/Orion2/Lib/Chombo/lib/src/MHDTools/../../src/BaseTools/BaseNamespaceFooter.H"
# 10 "/global/u2/p/psli/Orion2/Lib/Chombo/lib/src/MHDTools/../../src/BaseTools/BaseNamespaceFooter.H"

# 123 "/global/u2/p/psli/Orion2/Lib/Chombo/lib/src/MHDTools/../../src/BaseTools/CONSTANTS.H"
# 4 "p/3d.Linux.64.mpiCC.mpif90.OPT.MPI-blpdata/GradientF.C"

# 1 "/global/u2/p/psli/Orion2/Lib/Chombo/lib/src/MHDTools/../../src/BaseTools/CONSTANTS.H"
# 10 "/global/u2/p/psli/Orion2/Lib/Chombo/lib/src/MHDTools/../../src/BaseTools/CONSTANTS.H"


# 6 "p/3d.Linux.64.mpiCC.mpif90.OPT.MPI-blpdata/GradientF.C"
# 1 "./MASKVAL.H"
# 10 "./MASKVAL.H"














# 7 "p/3d.Linux.64.mpiCC.mpif90.OPT.MPI-blpdata/GradientF.C"
      subroutine NEWMACGRAD(
     &           edgeGrad
     &           ,iedgeGradlo0,iedgeGradlo1,iedgeGradlo2
     &           ,iedgeGradhi0,iedgeGradhi1,iedgeGradhi2
     &           ,phi
     &           ,iphilo0,iphilo1,iphilo2
     &           ,iphihi0,iphihi1,iphihi2
     &           ,iedgeGridlo0,iedgeGridlo1,iedgeGridlo2
     &           ,iedgeGridhi0,iedgeGridhi1,iedgeGridhi2
     &           ,dx
     &           ,dir
     &           ,edgeDir
     &           )

      implicit none
      integer CHF_ID(0:5,0:5)
      data CHF_ID/ 1,0,0,0,0,0 ,0,1,0,0,0,0 ,0,0,1,0,0,0 ,0,0,0,1,0,0 ,0,0,0,0,1,0 ,0,0,0,0,0,1 /


      integer iedgeGradlo0,iedgeGradlo1,iedgeGradlo2
      integer iedgeGradhi0,iedgeGradhi1,iedgeGradhi2
      REAL*8 edgeGrad(
     &           iedgeGradlo0:iedgeGradhi0,
     &           iedgeGradlo1:iedgeGradhi1,
     &           iedgeGradlo2:iedgeGradhi2)
      integer iphilo0,iphilo1,iphilo2
      integer iphihi0,iphihi1,iphihi2
      REAL*8 phi(
     &           iphilo0:iphihi0,
     &           iphilo1:iphihi1,
     &           iphilo2:iphihi2)
      integer iedgeGridlo0,iedgeGridlo1,iedgeGridlo2
      integer iedgeGridhi0,iedgeGridhi1,iedgeGridhi2
      REAL*8 dx
      integer dir
      integer edgeDir
      integer i,j,k
      integer ii,jj,kk
      integer iedge,jedge,kedge
      REAL*8 factor
      
      ii = CHF_ID(0,dir)
      jj = CHF_ID(1,dir)
      kk = CHF_ID(2,dir)
      
      iedge = CHF_ID(edgeDir,0)
      jedge = CHF_ID(edgeDir,1)
      kedge = CHF_ID(edgeDir,2)
      if (dir.eq.edgeDir) then
         factor = (1.0d0)/dx
         
      do k = iedgeGridlo2,iedgeGridhi2
      do j = iedgeGridlo1,iedgeGridhi1
      do i = iedgeGridlo0,iedgeGridhi0

         edgeGrad(i,j,k) = factor*(phi(i,j,k)
     &                                    -phi(i-ii,j-jj,k-kk))
         
      enddo
      enddo
      enddo
      else
         factor = (0.250d0)/dx
         
      do k = iedgeGridlo2,iedgeGridhi2
      do j = iedgeGridlo1,iedgeGridhi1
      do i = iedgeGridlo0,iedgeGridhi0

         edgeGrad(i,j,k) =
     &        factor*(phi(i+ii,j+jj,k+kk)
     &        -phi(i-ii,j-jj,k-kk)
     &        +phi(i+ii-iedge,j+jj-jedge,k+kk-kedge)
     &        -phi(i-ii-iedge,j-jj-jedge,k-kk-kedge))
         
      enddo
      enddo
      enddo
      endif
      return
      end
      subroutine CRSEONESIDEGRAD(
     &           edgeGrad
     &           ,iedgeGradlo0,iedgeGradlo1,iedgeGradlo2
     &           ,iedgeGradhi0,iedgeGradhi1,iedgeGradhi2
     &           ,mask
     &           ,imasklo0,imasklo1,imasklo2
     &           ,imaskhi0,imaskhi1,imaskhi2
     &           ,iloEdgeBoxlo0,iloEdgeBoxlo1,iloEdgeBoxlo2
     &           ,iloEdgeBoxhi0,iloEdgeBoxhi1,iloEdgeBoxhi2
     &           ,ihiEdgeBoxlo0,ihiEdgeBoxlo1,ihiEdgeBoxlo2
     &           ,ihiEdgeBoxhi0,ihiEdgeBoxhi1,ihiEdgeBoxhi2
     &           ,dir
     &           ,doLo
     &           ,doHi
     &           )

      implicit none
      integer CHF_ID(0:5,0:5)
      data CHF_ID/ 1,0,0,0,0,0 ,0,1,0,0,0,0 ,0,0,1,0,0,0 ,0,0,0,1,0,0 ,0,0,0,0,1,0 ,0,0,0,0,0,1 /


      integer iedgeGradlo0,iedgeGradlo1,iedgeGradlo2
      integer iedgeGradhi0,iedgeGradhi1,iedgeGradhi2
      REAL*8 edgeGrad(
     &           iedgeGradlo0:iedgeGradhi0,
     &           iedgeGradlo1:iedgeGradhi1,
     &           iedgeGradlo2:iedgeGradhi2)
      integer imasklo0,imasklo1,imasklo2
      integer imaskhi0,imaskhi1,imaskhi2
      integer mask(
     &           imasklo0:imaskhi0,
     &           imasklo1:imaskhi1,
     &           imasklo2:imaskhi2)
      integer iloEdgeBoxlo0,iloEdgeBoxlo1,iloEdgeBoxlo2
      integer iloEdgeBoxhi0,iloEdgeBoxhi1,iloEdgeBoxhi2
      integer ihiEdgeBoxlo0,ihiEdgeBoxlo1,ihiEdgeBoxlo2
      integer ihiEdgeBoxhi0,ihiEdgeBoxhi1,ihiEdgeBoxhi2
      integer dir
      integer doLo
      integer doHi
      integer i,j,k
      integer ii,jj,kk
      
      ii = CHF_ID(dir,0)
      jj = CHF_ID(dir,1)
      kk = CHF_ID(dir,2)
      if (doLo.eq.1) then
         
      do k = iloEdgeBoxlo2,iloEdgeBoxhi2
      do j = iloEdgeBoxlo1,iloEdgeBoxhi1
      do i = iloEdgeBoxlo0,iloEdgeBoxhi0

         if (mask(i-2*ii, j-2*jj, k-2*kk).eq. 0) then
            edgeGrad(i,j,k) = (2.0d0)*edgeGrad(i-ii,j-jj,k-kk)
     &           -edgeGrad(i-2*ii,j-2*jj,k-2*kk)
         else if (mask(i-ii,j-jj,k-kk).eq. 0) then
            edgeGrad(i,j,k) = edgeGrad(i-ii,j-jj,k-kk)
         else
         endif
         
      enddo
      enddo
      enddo
      endif
      if (doHi.eq.1) then
         
      do k = ihiEdgeBoxlo2,ihiEdgeBoxhi2
      do j = ihiEdgeBoxlo1,ihiEdgeBoxhi1
      do i = ihiEdgeBoxlo0,ihiEdgeBoxhi0

         if (mask(i+ii, j+jj,k+kk).eq. 0) then
            edgeGrad(i,j,k) = (2.0d0)*edgeGrad(i+ii,j+jj,k+kk)
     &           -edgeGrad(i+2*ii,j+2*jj,k+2*kk)
         else if (mask(i,j,k).eq. 0) then
            edgeGrad(i,j,k) = edgeGrad(i+ii,j+jj,k+kk)
         else
         endif
         
      enddo
      enddo
      enddo
      endif
      return
      end
      subroutine GRADCC(
     &           gradPhi
     &           ,igradPhilo0,igradPhilo1,igradPhilo2
     &           ,igradPhihi0,igradPhihi1,igradPhihi2
     &           ,phi
     &           ,iphilo0,iphilo1,iphilo2
     &           ,iphihi0,iphihi1,iphihi2
     &           ,igridBoxlo0,igridBoxlo1,igridBoxlo2
     &           ,igridBoxhi0,igridBoxhi1,igridBoxhi2
     &           ,dx
     &           ,dir
     &           )

      implicit none
      integer CHF_ID(0:5,0:5)
      data CHF_ID/ 1,0,0,0,0,0 ,0,1,0,0,0,0 ,0,0,1,0,0,0 ,0,0,0,1,0,0 ,0,0,0,0,1,0 ,0,0,0,0,0,1 /


      integer igradPhilo0,igradPhilo1,igradPhilo2
      integer igradPhihi0,igradPhihi1,igradPhihi2
      REAL*8 gradPhi(
     &           igradPhilo0:igradPhihi0,
     &           igradPhilo1:igradPhihi1,
     &           igradPhilo2:igradPhihi2)
      integer iphilo0,iphilo1,iphilo2
      integer iphihi0,iphihi1,iphihi2
      REAL*8 phi(
     &           iphilo0:iphihi0,
     &           iphilo1:iphihi1,
     &           iphilo2:iphihi2)
      integer igridBoxlo0,igridBoxlo1,igridBoxlo2
      integer igridBoxhi0,igridBoxhi1,igridBoxhi2
      REAL*8 dx
      integer dir
      integer i,j,k
      integer ii,jj,kk
      REAL*8 factor
      
      ii = CHF_ID(dir,0)
      jj = CHF_ID(dir,1)
      kk = CHF_ID(dir,2)
      factor = (0.500d0)/dx
      
      do k = igridBoxlo2,igridBoxhi2
      do j = igridBoxlo1,igridBoxhi1
      do i = igridBoxlo0,igridBoxhi0

      gradPhi(i,j,k) = factor*(phi(i+ii,j+jj,k+kk)
     &                                -phi(i-ii,j-jj,k-kk))
      
      enddo
      enddo
      enddo
      return
      end
