# 1 "p/3d.Linux.64.mpiCC.mpif90.OPT.MPI-blpdata/LevelMGF.C"
# 1 "/global/u2/p/psli/Orion2/Lib/Chombo/lib/src/MHDTools/../../src/BaseTools/REAL.H"
# 10 "/global/u2/p/psli/Orion2/Lib/Chombo/lib/src/MHDTools/../../src/BaseTools/REAL.H"





# 24 "/global/u2/p/psli/Orion2/Lib/Chombo/lib/src/MHDTools/../../src/BaseTools/REAL.H"

# 41 "/global/u2/p/psli/Orion2/Lib/Chombo/lib/src/MHDTools/../../src/BaseTools/REAL.H"

# 54 "/global/u2/p/psli/Orion2/Lib/Chombo/lib/src/MHDTools/../../src/BaseTools/REAL.H"



# 65 "/global/u2/p/psli/Orion2/Lib/Chombo/lib/src/MHDTools/../../src/BaseTools/REAL.H"





# 2 "p/3d.Linux.64.mpiCC.mpif90.OPT.MPI-blpdata/LevelMGF.C"
# 1 "/global/u2/p/psli/Orion2/Lib/Chombo/lib/src/MHDTools/../../src/BoxTools/SPACE.H"
# 10 "/global/u2/p/psli/Orion2/Lib/Chombo/lib/src/MHDTools/../../src/BoxTools/SPACE.H"













# 1 "/global/u2/p/psli/Orion2/Lib/Chombo/lib/src/MHDTools/../../src/BaseTools/CH_assert.H"
# 10 "/global/u2/p/psli/Orion2/Lib/Chombo/lib/src/MHDTools/../../src/BaseTools/CH_assert.H"









# 1 "/global/u2/p/psli/Orion2/Lib/Chombo/lib/src/MHDTools/../../src/BaseTools/BaseNamespaceHeader.H"
# 10 "/global/u2/p/psli/Orion2/Lib/Chombo/lib/src/MHDTools/../../src/BaseTools/BaseNamespaceHeader.H"

# 20 "/global/u2/p/psli/Orion2/Lib/Chombo/lib/src/MHDTools/../../src/BaseTools/CH_assert.H"


# 43 "/global/u2/p/psli/Orion2/Lib/Chombo/lib/src/MHDTools/../../src/BaseTools/CH_assert.H"

# 51 "/global/u2/p/psli/Orion2/Lib/Chombo/lib/src/MHDTools/../../src/BaseTools/CH_assert.H"


# 1 "/global/u2/p/psli/Orion2/Lib/Chombo/lib/src/MHDTools/../../src/BaseTools/BaseNamespaceFooter.H"
# 10 "/global/u2/p/psli/Orion2/Lib/Chombo/lib/src/MHDTools/../../src/BaseTools/BaseNamespaceFooter.H"

# 54 "/global/u2/p/psli/Orion2/Lib/Chombo/lib/src/MHDTools/../../src/BaseTools/CH_assert.H"



# 24 "/global/u2/p/psli/Orion2/Lib/Chombo/lib/src/MHDTools/../../src/BoxTools/SPACE.H"

# 1 "/global/u2/p/psli/Orion2/Lib/Chombo/lib/src/MHDTools/../../src/BaseTools/NamespaceHeader.H"
# 10 "/global/u2/p/psli/Orion2/Lib/Chombo/lib/src/MHDTools/../../src/BaseTools/NamespaceHeader.H"

# 26 "/global/u2/p/psli/Orion2/Lib/Chombo/lib/src/MHDTools/../../src/BoxTools/SPACE.H"

# 41 "/global/u2/p/psli/Orion2/Lib/Chombo/lib/src/MHDTools/../../src/BoxTools/SPACE.H"

# 54 "/global/u2/p/psli/Orion2/Lib/Chombo/lib/src/MHDTools/../../src/BoxTools/SPACE.H"













# 1 "/global/u2/p/psli/Orion2/Lib/Chombo/lib/src/MHDTools/../../src/BaseTools/NamespaceFooter.H"
# 10 "/global/u2/p/psli/Orion2/Lib/Chombo/lib/src/MHDTools/../../src/BaseTools/NamespaceFooter.H"

# 68 "/global/u2/p/psli/Orion2/Lib/Chombo/lib/src/MHDTools/../../src/BoxTools/SPACE.H"

# 76 "/global/u2/p/psli/Orion2/Lib/Chombo/lib/src/MHDTools/../../src/BoxTools/SPACE.H"









# 93 "/global/u2/p/psli/Orion2/Lib/Chombo/lib/src/MHDTools/../../src/BoxTools/SPACE.H"

# 143 "/global/u2/p/psli/Orion2/Lib/Chombo/lib/src/MHDTools/../../src/BoxTools/SPACE.H"

# 171 "/global/u2/p/psli/Orion2/Lib/Chombo/lib/src/MHDTools/../../src/BoxTools/SPACE.H"

# 195 "/global/u2/p/psli/Orion2/Lib/Chombo/lib/src/MHDTools/../../src/BoxTools/SPACE.H"

# 3 "p/3d.Linux.64.mpiCC.mpif90.OPT.MPI-blpdata/LevelMGF.C"
# 1 "/global/u2/p/psli/Orion2/Lib/Chombo/lib/src/MHDTools/../../src/BaseTools/CONSTANTS.H"
# 10 "/global/u2/p/psli/Orion2/Lib/Chombo/lib/src/MHDTools/../../src/BaseTools/CONSTANTS.H"


# 1 "/global/u2/p/psli/Orion2/Lib/Chombo/lib/src/MHDTools/../../src/BaseTools/BaseNamespaceHeader.H"
# 10 "/global/u2/p/psli/Orion2/Lib/Chombo/lib/src/MHDTools/../../src/BaseTools/BaseNamespaceHeader.H"

# 15 "/global/u2/p/psli/Orion2/Lib/Chombo/lib/src/MHDTools/../../src/BaseTools/CONSTANTS.H"

# 67 "/global/u2/p/psli/Orion2/Lib/Chombo/lib/src/MHDTools/../../src/BaseTools/CONSTANTS.H"

# 91 "/global/u2/p/psli/Orion2/Lib/Chombo/lib/src/MHDTools/../../src/BaseTools/CONSTANTS.H"

# 115 "/global/u2/p/psli/Orion2/Lib/Chombo/lib/src/MHDTools/../../src/BaseTools/CONSTANTS.H"







# 1 "/global/u2/p/psli/Orion2/Lib/Chombo/lib/src/MHDTools/../../src/BaseTools/BaseNamespaceFooter.H"
# 10 "/global/u2/p/psli/Orion2/Lib/Chombo/lib/src/MHDTools/../../src/BaseTools/BaseNamespaceFooter.H"

# 123 "/global/u2/p/psli/Orion2/Lib/Chombo/lib/src/MHDTools/../../src/BaseTools/CONSTANTS.H"
# 4 "p/3d.Linux.64.mpiCC.mpif90.OPT.MPI-blpdata/LevelMGF.C"

# 1 "/global/u2/p/psli/Orion2/Lib/Chombo/lib/src/MHDTools/../../src/BaseTools/CONSTANTS.H"
# 10 "/global/u2/p/psli/Orion2/Lib/Chombo/lib/src/MHDTools/../../src/BaseTools/CONSTANTS.H"


# 6 "p/3d.Linux.64.mpiCC.mpif90.OPT.MPI-blpdata/LevelMGF.C"
      subroutine INTERPMG(
     &           fine
     &           ,ifinelo0,ifinelo1,ifinelo2
     &           ,ifinehi0,ifinehi1,ifinehi2
     &           ,nfinecomp
     &           ,crse
     &           ,icrselo0,icrselo1,icrselo2
     &           ,icrsehi0,icrsehi1,icrsehi2
     &           ,ncrsecomp
     &           ,iregionlo0,iregionlo1,iregionlo2
     &           ,iregionhi0,iregionhi1,iregionhi2
     &           ,nref
     &           ,ibreflo0,ibreflo1,ibreflo2
     &           ,ibrefhi0,ibrefhi1,ibrefhi2
     &           )

      implicit none
      integer nfinecomp
      integer ifinelo0,ifinelo1,ifinelo2
      integer ifinehi0,ifinehi1,ifinehi2
      REAL*8 fine(
     &           ifinelo0:ifinehi0,
     &           ifinelo1:ifinehi1,
     &           ifinelo2:ifinehi2,
     &           0:nfinecomp-1)
      integer ncrsecomp
      integer icrselo0,icrselo1,icrselo2
      integer icrsehi0,icrsehi1,icrsehi2
      REAL*8 crse(
     &           icrselo0:icrsehi0,
     &           icrselo1:icrsehi1,
     &           icrselo2:icrsehi2,
     &           0:ncrsecomp-1)
      integer iregionlo0,iregionlo1,iregionlo2
      integer iregionhi0,iregionhi1,iregionhi2
      integer nref
      integer ibreflo0,ibreflo1,ibreflo2
      integer ibrefhi0,ibrefhi1,ibrefhi2
      integer i, ifine,ifinecell,
     &     j,jfine,jfinecell,
     &     k,kfine,kfinecell
      integer n,ncomp
      ncomp = nfinecomp
      if(ncomp .ne. ncrsecomp) then
         call MAYDAYERROR(
     &           )
      endif
      do n=0,ncomp-1
         
      do kfinecell = ibreflo2,ibrefhi2
      do jfinecell = ibreflo1,ibrefhi1
      do ifinecell = ibreflo0,ibrefhi0

         
      do k = iregionlo2,iregionhi2
      do j = iregionlo1,iregionhi1
      do i = iregionlo0,iregionhi0

         
         ifine = nref*i + ifinecell
         jfine = nref*j + jfinecell
         kfine = nref*k + kfinecell 
         fine(ifine,jfine,kfine,n) =
     $        fine(ifine,jfine,kfine,n) +
     $        crse(i,j,k,n)
         
      enddo
      enddo
      enddo
         
      enddo
      enddo
      enddo
      enddo
      return
      end
